{
  "content": [
    {
      "id": 1,
      "username": "username1",
      "email": "email1",
      "enabled": false,
      "roles": [
        "USER"
      ]
    },
    {
      "id": 2,
      "username": "username2",
      "email": "email2",
      "enabled": true,
      "roles": [
        "ADMIN", "USER"
      ]
    }
  ],
  "pageable": {
    "sort": {
      "sorted": false,
      "unsorted": true,
      "empty": true
    },
    "pageNumber": 0,
    "pageSize": 2,
    "offset": 0,
    "paged": true,
    "unpaged": false
  },
  "totalElements": 5,
  "totalPages": 3,
  "last": false,
  "first": true,
  "sort": {
    "sorted": false,
    "unsorted": true,
    "empty": true
  },
  "numberOfElements": 2,
  "size": 2,
  "number": 0,
  "empty": false
}
